[gd_scene load_steps=5 format=2]

[ext_resource path="res://scene/Levels.tscn" type="PackedScene" id=1]
[ext_resource path="res://script/Main.gd" type="Script" id=2]
[ext_resource path="res://scene/Game.tscn" type="PackedScene" id=3]
[ext_resource path="res://scene/GUI.tscn" type="PackedScene" id=4]

[node name="Main" type="Node"]
script = ExtResource( 2 )

[node name="Game" parent="." instance=ExtResource( 3 )]

[node name="Levels" parent="." instance=ExtResource( 1 )]

[node name="GUI" parent="." instance=ExtResource( 4 )]

[node name="Tween" type="Tween" parent="."]
